digraph classes{
	//Definicoes gerais grafo
	node [shape=record];
	//Definicoes dos nodos
	Bicicleta [shape=record, label="{Bicicleta}"];
	Carro [shape=record, label="{Carro}"];
	Client [shape=record, label="{Client | Atributos: | {clientNro | xsd:int}}"];
	Veiculo [shape=record, label="{Veiculo | Atributos: | {modelo | xsd:string} | {nrRodas | xsd:int}}"];
	//Definicoes das arestas
	Bicicleta -> Veiculo [label="<<subclass>>"];
	Carro -> Veiculo [label="<<subclass>>"];
	Client -> Order [label="owns"];
}
